
_-_-_-_-_-_-_-_-_-_-_-_-_-_-_-_-_-_-_-_-_-_

Model: "CDMV"
_________________________________________________________________
Layer (type)                 Output Shape              Param #   
=================================================================
lstm (LSTM)                  (None, 84, 84)            101472    
_________________________________________________________________
lstm_1 (LSTM)                (None, 84)                56784     
_________________________________________________________________
dropout (Dropout)            (None, 84)                0         
_________________________________________________________________
dense (Dense)                (None, 1)                 85        
=================================================================
Total params: 158,341
Trainable params: 158,341
Non-trainable params: 0
_________________________________________________________________

Balanced accuracy score:
0.1410036998766219

Mean absolute error:
2.1180722891566264 / 20 

Median absolute error:
1.0 / 20 

Confusion matrix:
[[26 48 16 12  2  2  4  1  3  1]
 [ 9 16 17  8  3  1  3  0  0  0]
 [ 4 21 10  6  3  1  4  0  0  0]
 [ 7 13 10  8  2  3  1  2  1  0]
 [ 0 10 13  8  1  1  0  1  0  0]
 [ 2  3 12  4  2  2  0  1  0  0]
 [ 0  3  9  4  0  2  1  2  3  0]
 [ 0  2  0  2  1  2  3  3  1  0]
 [ 1  7  4  9  2  1  2  0  2  0]
 [ 1  2  2  4  3  0  1  0  6  2]]

Classification report:
              precision    recall  f1-score   support

         0.0       0.52      0.23      0.32       115
         1.0       0.13      0.28      0.18        57
         2.0       0.11      0.20      0.14        49
         3.0       0.12      0.17      0.14        47
         4.0       0.05      0.03      0.04        34
         5.0       0.13      0.08      0.10        26
         6.0       0.05      0.04      0.05        24
         7.0       0.30      0.21      0.25        14
         8.0       0.12      0.07      0.09        28
         9.0       0.67      0.10      0.17        21

    accuracy                           0.17       415
   macro avg       0.22      0.14      0.15       415
weighted avg       0.26      0.17      0.18       415

